<svg xmlns="http://www.w3.org/2000/svg" width="70.219" height="70.217" viewBox="0 0 70.219 70.217">
  <g id="rolling-pin" transform="translate(0 -0.003)">
    <g id="Group_55" data-name="Group 55" transform="translate(0 0.003)">
      <path id="Path_760" data-name="Path 760" d="M68.784,1.439a4.915,4.915,0,0,0-6.943,0L54.826,8.454a3.11,3.11,0,0,0-3.637.554l-.575.574-.825-.825a3.107,3.107,0,0,0-4.39,0L8.757,45.4a3.1,3.1,0,0,0,0,4.391l.825.825-.575.575a3.106,3.106,0,0,0-.555,3.637L1.438,61.842A4.909,4.909,0,0,0,8.38,68.785l7.014-7.014a3.113,3.113,0,0,0,3.637-.554l.575-.575.824.824a3.109,3.109,0,0,0,4.391,0L61.464,24.822a3.1,3.1,0,0,0,0-4.391l-.824-.824.575-.575a3.11,3.11,0,0,0,.554-3.636l7.014-7.014A4.915,4.915,0,0,0,68.784,1.439ZM6.695,67.1a2.525,2.525,0,0,1-3.571-3.571l6.915-6.915,3.571,3.571ZM59.779,23.136,23.135,59.78a.721.721,0,0,1-1.018,0L15.526,53.19a1.192,1.192,0,0,0-1.686,1.686l4.08,4.08-.574.574a.721.721,0,0,1-1.018,0h0L10.693,53.9a.719.719,0,0,1,0-1.018l1.412-1.412.006-.005a1.192,1.192,0,0,0,.082-1.6,1.1,1.1,0,0,0-.082-.091h0l-1.667-1.667a.719.719,0,0,1,0-1.018L47.087,10.444a.72.72,0,0,1,1.018,0l1.666,1.666v0a1.193,1.193,0,0,0,1.686,0l1.418-1.418a.72.72,0,0,1,1.018,0l5.634,5.634a.721.721,0,0,1,0,1.018l-.575.574-4.238-4.238a1.192,1.192,0,0,0-1.686,1.686l5.08,5.08h0l1.666,1.667a.719.719,0,0,1,0,1.018ZM67.1,6.7,60.183,13.61l-3.57-3.57,6.914-6.915A2.525,2.525,0,1,1,67.1,6.7Z" transform="translate(0 -0.003)" fill="#fff"/>
    </g>
  </g>
</svg>
