<svg id="clear-button" xmlns="http://www.w3.org/2000/svg" width="22" height="22" viewBox="0 0 22 22">
  <g id="clear">
    <path id="Path_628" data-name="Path 628" d="M22,2.2,19.8,0,11,8.8,2.2,0,0,2.2,8.8,11,0,19.8,2.2,22,11,13.2,19.8,22,22,19.8,13.2,11Z" fill="#333"/>
  </g>
</svg>
