<svg xmlns="http://www.w3.org/2000/svg" width="34.641" height="24.453" viewBox="0 0 34.641 24.453">
  <g id="Quotemarks-right" transform="translate(-0.001 -9.412)">
    <path id="Path_805" data-name="Path 805" d="M7.683,9.412a7.682,7.682,0,0,0-.446,15.352c.07.753.017,2.8-1.947,5.656a.541.541,0,0,0,.063.69c.8.8,1.3,1.31,1.649,1.665.455.463.663.674.967.95a.541.541,0,0,0,.719.008,20.745,20.745,0,0,0,6.677-16.678C15.042,12.626,11.811,9.412,7.683,9.412Zm.654,23.172c-.147-.145-.316-.317-.563-.569-.3-.307-.715-.728-1.342-1.357,2.384-3.674,1.934-6.291,1.737-6.667a.561.561,0,0,0-.486-.3,6.6,6.6,0,0,1,0-13.2c3.545,0,6.321,2.792,6.6,6.639A19.783,19.783,0,0,1,8.337,32.584Z" fill="#54514b"/>
    <path id="Path_806" data-name="Path 806" d="M50.88,17.055h0c-.324-4.428-3.554-7.642-7.681-7.642a7.682,7.682,0,0,0-.445,15.352c.07.753.017,2.8-1.948,5.656a.541.541,0,0,0,.063.69c.8.8,1.3,1.306,1.644,1.66.457.466.666.679.972.956a.541.541,0,0,0,.719.007A20.746,20.746,0,0,0,50.88,17.055Zm-7.027,15.53c-.149-.146-.318-.319-.568-.573-.3-.307-.713-.726-1.337-1.352,2.384-3.675,1.935-6.291,1.738-6.667a.562.562,0,0,0-.487-.3,6.6,6.6,0,1,1,0-13.2c3.544,0,6.321,2.792,6.6,6.639h0A19.787,19.787,0,0,1,43.853,32.584Z" transform="translate(-16.291)" fill="#54514b"/>
  </g>
</svg>
