<svg xmlns="http://www.w3.org/2000/svg" width="107.561" height="48.558" viewBox="0 0 107.561 48.558">
  <g id="LOGO" transform="translate(-146.3 -352.1)">
    <g id="Group_14" data-name="Group 14" transform="translate(157.839 393.459)">
      <g id="Group_11" data-name="Group 11" transform="translate(66.837 3)">
        <circle id="Ellipse_8" data-name="Ellipse 8" cx="1.023" cy="1.023" r="1.023" fill="#ab8248"/>
      </g>
      <g id="Group_12" data-name="Group 12" transform="translate(0 3)">
        <circle id="Ellipse_9" data-name="Ellipse 9" cx="1.023" cy="1.023" r="1.023" fill="#ab8248"/>
      </g>
      <g id="Group_13" data-name="Group 13" transform="translate(6.352 0)">
        <path id="Path_706" data-name="Path 706" d="M201.905,470.776a3.639,3.639,0,0,0-2.082-.635c-1.059,0-1.8.459-1.8,1.27,0,.635.529.988,1.623,1.129l.671.071c1.165.141,2.188.635,2.188,1.835,0,1.376-1.27,2.082-2.753,2.082a4.659,4.659,0,0,1-2.753-.882l.423-.635a3.718,3.718,0,0,0,2.294.776c1.094,0,1.941-.423,1.941-1.27,0-.671-.565-1.023-1.694-1.129l-.706-.071c-1.2-.141-2.047-.671-2.047-1.835,0-1.341,1.165-2.082,2.647-2.082a4.153,4.153,0,0,1,2.505.776Z" transform="translate(-197 -469.365)" fill="#ab8248"/>
        <path id="Path_707" data-name="Path 707" d="M217.812,476.552H217V469.6h.812Z" transform="translate(-209.942 -469.494)" fill="#ab8248"/>
        <path id="Path_708" data-name="Path 708" d="M230.858,476.552h-.706l-4.305-5.576v5.576H225V469.6h.706l4.305,5.576V469.6h.812v6.952Z" transform="translate(-215.119 -469.494)" fill="#ab8248"/>
        <path id="Path_709" data-name="Path 709" d="M252.558,470.747l-.67.459a2.568,2.568,0,0,0-2.188-1.129,2.824,2.824,0,0,0,0,5.646,2.614,2.614,0,0,0,2.188-1.129l.635.494A3.291,3.291,0,0,1,249.7,476.5a3.6,3.6,0,0,1,0-7.2A3.383,3.383,0,0,1,252.558,470.747Z" transform="translate(-228.773 -469.3)" fill="#ab8248"/>
        <path id="Path_710" data-name="Path 710" d="M273.705,476.552H268.8V469.6h4.87v.741h-4.058v2.329h3.917v.741h-3.917v2.4h4.094Z" transform="translate(-243.463 -469.494)" fill="#ab8248"/>
        <path id="Path_711" data-name="Path 711" d="M293.7,470.465a2.423,2.423,0,0,1,2.117-1.165,2.057,2.057,0,0,1,2.223,2.153,2.86,2.86,0,0,1-.953,1.976l-2.082,2.188h3.247v.741h-4.376v-.6l2.647-2.788a2.187,2.187,0,0,0,.706-1.517,1.343,1.343,0,0,0-1.447-1.412,1.809,1.809,0,0,0-1.553.882Z" transform="translate(-259.576 -469.3)" fill="#ab8248"/>
        <path id="Path_712" data-name="Path 712" d="M315.652,472.964c0,2.223-1.306,3.564-2.894,3.564s-2.858-1.341-2.858-3.564,1.306-3.564,2.858-3.564C314.346,469.4,315.652,470.706,315.652,472.964Zm-4.94,0c0,1.835.918,2.823,2.082,2.823s2.082-1.023,2.082-2.823c0-1.835-.918-2.823-2.082-2.823C311.629,470.106,310.712,471.129,310.712,472.964Z" transform="translate(-270.059 -469.365)" fill="#ab8248"/>
        <path id="Path_713" data-name="Path 713" d="M331.723,476.358h-.776v-5.929l-2.047.882V470.5l2.823-1.2Z" transform="translate(-282.354 -469.3)" fill="#ab8248"/>
        <path id="Path_714" data-name="Path 714" d="M346.476,471.306a1.683,1.683,0,0,1-1.2,1.623,1.732,1.732,0,0,1,1.376,1.659c0,1.235-1.164,1.941-2.576,1.941s-2.576-.706-2.576-1.941a1.732,1.732,0,0,1,1.376-1.659,1.683,1.683,0,0,1-1.2-1.623c0-1.2,1.094-1.906,2.435-1.906C345.417,469.4,346.476,470.07,346.476,471.306Zm-4.164,3.246c0,.847.812,1.27,1.764,1.27s1.764-.423,1.764-1.27-.812-1.27-1.764-1.27C343.088,473.246,342.312,473.705,342.312,474.552Zm.141-3.211c0,.847.741,1.27,1.623,1.27s1.623-.423,1.623-1.27c0-.812-.741-1.235-1.623-1.235S342.453,470.529,342.453,471.341Z" transform="translate(-290.507 -469.365)" fill="#ab8248"/>
      </g>
    </g>
    <g id="Group_23" data-name="Group 23" transform="translate(146.3 363.978)">
      <g id="Group_15" data-name="Group 15" transform="translate(0 9.013)">
        <path id="Path_715" data-name="Path 715" d="M151.77,411.3c2.964,0,5.011,1.023,5.011,3.6a3.072,3.072,0,0,1-2.435,3.141,3.33,3.33,0,0,1,2.753,3.388c0,2.647-2.011,3.811-5.082,3.811H146.3V411.3Zm-4.27,1.129v5.117h4.235c2.153,0,3.776-.6,3.776-2.576s-1.588-2.576-3.776-2.576H147.5Zm0,6.281v5.4h4.446c2.329,0,3.846-.67,3.846-2.682s-1.517-2.682-3.846-2.682H147.5Z" transform="translate(-146.3 -411.3)" fill="#ab8248"/>
      </g>
      <g id="Group_16" data-name="Group 16" transform="translate(15.351 9.013)">
        <path id="Path_716" data-name="Path 716" d="M199.575,425.239H189.8V411.3h9.7v1.129h-8.469v5.223h8.222v1.129h-8.222v5.293h8.54Z" transform="translate(-189.8 -411.3)" fill="#ab8248"/>
      </g>
      <g id="Group_17" data-name="Group 17" transform="translate(29.325 8.872)">
        <path id="Path_717" data-name="Path 717" d="M239.493,413.405a7.57,7.57,0,0,0-4.446-1.376c-2.294,0-3.952,1.023-3.952,2.788,0,1.376,1.059,2.223,3.458,2.505l1.553.177c2.541.282,4.376,1.27,4.376,3.564,0,2.717-2.506,4.058-5.576,4.058a9.721,9.721,0,0,1-5.505-1.729l.671-.953a8.244,8.244,0,0,0,4.8,1.553c2.4,0,4.305-.918,4.305-2.823,0-1.517-1.235-2.259-3.6-2.505l-1.623-.177c-2.611-.282-4.164-1.447-4.164-3.564,0-2.576,2.329-4.023,5.258-4.023a8.776,8.776,0,0,1,5.082,1.518Z" transform="translate(-229.4 -410.9)" fill="#ab8248"/>
      </g>
      <g id="Group_18" data-name="Group 18" transform="translate(43.299 9.013)">
        <path id="Path_718" data-name="Path 718" d="M280.469,412.465h-5.117v12.775h-1.235V412.465H269V411.3h11.469Z" transform="translate(-269 -411.3)" fill="#ab8248"/>
      </g>
      <g id="Group_19" data-name="Group 19" transform="translate(57.803 11.377)">
        <path id="Path_719" data-name="Path 719" d="M312.747,429.575H310.1V418h2.647Z" transform="translate(-310.1 -418)" fill="#ab8248"/>
      </g>
      <g id="Group_20" data-name="Group 20" transform="translate(64.685 9.013)">
        <path id="Path_720" data-name="Path 720" d="M342.269,425.239h-2.647l-7.2-9.316v9.316H329.6V411.3h2.647l7.2,9.316V411.3h2.823Z" transform="translate(-329.6 -411.3)" fill="#ab8248"/>
      </g>
      <g id="Group_21" data-name="Group 21" transform="translate(81.094 8.73)">
        <path id="Path_721" data-name="Path 721" d="M388.98,412.652l-2.047,1.976a4.411,4.411,0,0,0-3.423-1.447,4.607,4.607,0,0,0-.035,9.21c2.329,0,3.67-1.094,4.023-3.07h-3.6v-2.329h6.528a5.988,5.988,0,0,1,.035.776c0,4.235-2.894,7.2-6.952,7.2a7.237,7.237,0,1,1,.07-14.468A7.271,7.271,0,0,1,388.98,412.652Z" transform="translate(-376.1 -410.5)" fill="#ab8248"/>
      </g>
      <g id="Group_22" data-name="Group 22" transform="translate(59.109)">
        <path id="Path_722" data-name="Path 722" d="M349.442,388.6c-26.22-9.21-35.642,6.952-35.642,6.952s10.8-14.01,35.748-6.846" transform="translate(-313.8 -385.76)" fill="#ab8248"/>
      </g>
    </g>
    <g id="Group_27" data-name="Group 27" transform="translate(236.71 352.1)">
      <g id="Group_24" data-name="Group 24" transform="translate(4.199 9.648)">
        <path id="Path_723" data-name="Path 723" d="M427.351,380.837a5.942,5.942,0,0,1-3.494-.318,8.586,8.586,0,0,1-1.306-.565c-5.223-2.435-8.152,4.552-8.152,4.552l3.211,1.306C425.834,388.707,427.351,380.837,427.351,380.837Zm-12.916,3.6c.494-.529,4.658-4.835,8.258-3.035C422.693,381.4,417.294,381.72,414.435,384.437Z" transform="translate(-414.4 -379.44)" fill="#95c11f"/>
      </g>
      <g id="Group_25" data-name="Group 25" transform="translate(5.911 0)">
        <path id="Path_724" data-name="Path 724" d="M421,361.346a31.161,31.161,0,0,1,.247-3.282,2.722,2.722,0,0,0-.247,3.282,3.526,3.526,0,0,1-1.694-2.364,3.131,3.131,0,0,1,1.412-3.141c1.023-.706,2.364-2.047,1.553-3.741C422.266,352.1,428.76,358.487,421,361.346Z" transform="translate(-419.249 -352.1)" fill="#95c11f"/>
      </g>
      <g id="Group_26" data-name="Group 26" transform="translate(0 4.905)">
        <path id="Path_725" data-name="Path 725" d="M406.735,374.327c-.953-1.482-1.659-2.823-1.659-2.823a2.71,2.71,0,0,0,1.659,2.823,3.605,3.605,0,0,1-2.753-.988,3.216,3.216,0,0,1-.635-3.388c.423-1.165.776-3.035-.847-3.952C402.5,365.964,411.5,367.552,406.735,374.327Z" transform="translate(-402.5 -365.998)" fill="#95c11f"/>
      </g>
    </g>
  </g>
</svg>
