<svg xmlns="http://www.w3.org/2000/svg" width="15.509" height="10.905" viewBox="0 0 15.509 10.905">
  <path id="right-arrow" d="M10.444,4.838a.55.55,0,0,0-.782.774l3.963,3.963H.547A.545.545,0,0,0,0,10.123a.551.551,0,0,0,.547.555H13.625L9.662,14.633a.561.561,0,0,0,0,.782.548.548,0,0,0,.782,0l4.9-4.9a.538.538,0,0,0,0-.774Z" transform="translate(0 -4.674)" fill="#fff"/>
</svg>
