<svg xmlns="http://www.w3.org/2000/svg" width="9.344" height="17.289" viewBox="0 0 9.344 17.289">
  <path id="icon-social-facebook" d="M31.07,0H28.828a3.936,3.936,0,0,0-4.145,4.254V6.215H22.429a.352.352,0,0,0-.352.353V9.409a.352.352,0,0,0,.352.352h2.254v7.17a.352.352,0,0,0,.352.352h2.94a.352.352,0,0,0,.352-.352V9.761h2.635a.352.352,0,0,0,.352-.352V6.567a.353.353,0,0,0-.353-.353H28.328V4.552c0-.8.19-1.2,1.231-1.2h1.51A.352.352,0,0,0,31.421,3V.356A.353.353,0,0,0,31.07,0Z" transform="translate(-22.077 0.006)" fill="#333"/>
</svg>
