{
  "sEmptyTable":     "Cədvəldə heç bir məlumat yoxdur",
  "sInfo":           "_TOTAL_ Nəticədən _START_ - _END_ Arası Nəticələr",
  "sInfoEmpty":      "Nəticə Yoxdur",
  "sInfoFiltered":   "( _MAX_ Nəticə İçindən Tapılanlar)",
  "sInfoPostFix":    "",
  "sInfoThousands":  ",",
  "sLengthMenu":     "_MENU_ sətir göstər",
  "sLoadingRecords": "Yüklənir...",
  "sProcessing":     "Gözləyin...",
  "sSearch":         "<span class='fa fa-search'></span>",
  "sZeroRecords":    "Nəticə tapılmadı.",
  "oPaginate": {
    "sFirst":    "İlk",
    "sLast":     "Axırıncı",
    "sNext":     "Növbəti",
    "sPrevious": "Əvvəlki"
  },
  "oAria": {
    "sSortAscending":  ": sütunu artma sırası üzərə aktiv etmək",
    "sSortDescending": ": sütunu azalma sırası üzərə aktiv etmək"
  }
}